reffering_unit_or_laboratories,address,telephone_number
Alaminos Doctors Hospital,"Bolaney, Alaminos City",(075)5415271
ADH-Lenz Diagnostic Laboratory,"Palamis, Alaminos City",(075)5515427
Dagupan Doctor's Villaflor Memorial Clinic Laboratory,"Mayombo District, Dagupan City",(075)5155636/5155636
Dr. Marcelo M. Chan Memorial Hospital,"Mac Arthur Highway, Carmen West, Rosales",(075)5823303
Elguira General Hospital,"Rizal Avenue, San Carlos City",(075) 532-4481
Luzon Medical Center,"Tapuac District, Dagupan City",(075)5158853/5152149
Medical Centrum Dagupan Inc.,"A. B. Fernandez Ave. East, Dagupan City",(075) 515- 6464/ 522- 5725
Nazareth General Hospital,203 Perez Blvd.,(075)5221151/5220044
Pangasinan Medical Center,"Nable St., Dagupan City",(075)522-2256
Pangasinan Doctors Hospital,"Rizal Avenue, San Carlos City",(075)5323629/5326078
Region I Medical Center,"Arellano Bani, Dagupan City",(075) 515-8916 to 18
"Senor Sto. Nino Hospital, Inc.","J. Luna St., Bayambang",(075)592 2290
Specialist Group Hospital and Trauma Center,"Tapuac District, Dagupan City",(075)5222254/5230131
Urdaneta Sacred Heart Hospital Clinical Laboratory,"St. Vincent, Urdaneta City",(075)5682294/5656329
Virgen Milagrosa Medical Center,"1 Martin P. Posadas Ave., San Carlos City",(075)6341111
Bethany Hospital Inc.,"Widdoes St., San Fernando La Union",(072)2420804/7005260
Ilocos Training and Regional Medical Center,"Parian, San Fernando City, La Union",(072) 6076418 loc. 159
La Union Medical Diagnostic Center and Hospital,"Ancheta St., Catbangin San Bernardo City San Fernando, La Union",(072)2424796/8887801
Lorma Medical Center Laboratories,"National Highway Carlatan, San Fernando, La Union",(072)7000000 loc. 139 (072)2423621
Gabriela Silang General Hospital,"Tamag, Vigan City",(072) 722 8031
Metrovigan Cooperative Hospital,"Roxas Dike, Bantay",(077)7225771-74
Reyes Clinic and Hospital,"Simpson St., Poblacion Sur, Sta. Maria",(077) 732 5511
Saint James Hospital,"Pantay Daya, Vigan City",(077) 722 2943
Bangui District Hospital,"Brgy. Abaca, Bangui",077-676-1158
Gov. Roque B. Ablan Sr. Memorial Hospital,"Brgy. 23, P. Gomez St., Laoag City",(077) 772 1836
Mariano Marcos Memorial Hospital and Medical Center,"Brgy. 6, San Julian, Batac City",(077) 792 3144
Cagayan Valley Sanitarium and Hospital,"P-5 Mabini, Maharlika Hi-way Santiago ",(078)6828486/6822548
Veteran Regional Hospital,"National Highway, Magsaysay Bayombong, Nueva Viscaya",(078)8053561 loc. 111 (078)8053560
Dinalupihan Clinical Laboratory,"Dinalupihan, Bataan",(047) 481-1826
EDGT Lab-Tech Diagnostic Center (Main),"Buno Bldg. Kinatawan Rd., Tenejero, Balanga Bataan",(047)7914568
EDGT Lab Tech Diagnostic Center,"San Jose, Balanga City, Bataan",(047) 791-4139
Guzorell Medical and Surgical Clinic,"Lakandula St., Poblacion, Mariveles Bataan",(047)9355111/9356743
Heart of Jesus Hospital,"San Jose City, Nueva Ecija",(044) 511-1282
Immaculate Concepcion Medical Center of Central Luzon Inc.,"Circumferential Rd., Brgy. San Juan, San Juan ACCFA",(044)9400700/9404262
James L. Gordon Memorial Hospital,"Asinan St., Hospital Road, Olongapo City",(045)2237571 to 75
Pastrana Clinical Laboratory,"251 St., Plaridel Bulacan",(044)7951622
Sta. Elena Diagnostic Center,"Baliuag, Bulacan",(044) 766-4526
Central Luzon Doctors Hospital,"San Vicente, Tarlac City",(045) 982-0806
Jecsons Medical Center,"San Nicolas, Tarlac City",(045) 982-5501
Senor Sto. Nino Hospital,"Camiling, Tarlac",(045) 934-0176
Talon General Hospital,Tarlac City,(045) 982- 5415
Heart of Jesus Hospital,"San Jose City, Nueva Ecija",(044) 511-1282
Immaculate Conception ,"Cabanatuan City, Nueva Ecija",(044) 940- 0900
MV Gallego Cab. City Gen. Hospital,"Cabanatuan City, Nueva Ecija",(044) 463-9436
Paulino J. Garcia Memorial and Medical Center,"Cabanatuan City, Nueva Ecija",(044) 463-8286
Wesleyan University,"Cabanatuan City, Nueva Ecija",(044) 463- 4735
Nueva Ecija Good Samaritan,"Cabanatuan City, Nueva Ecija",(044) 463-1582 loc. 236
Premiere Medical Center,"Cabanatuan City, Nueva Ecija",(044) 463-7845 loc. 113
Angeles University Foundation,"Angeles City, Pampanga",(045) 625-2999
Mother Teresa of Calcutta,"City of San Fernando, Pampanga",(045) 636- 3470
Rafael Lazatin Memorial Medical Center,"Angeles City, Pampanga",(045) 625-4495
Jose B. Lingad,"City of San Fernando, Pampanga",(045) 961-2808
Pampanga Medical Specialist Hospital,"Guagua, Pampanga",(045) 455-7674 loc.152
"V.L Makabali Memorial Hospital, Inc.","City of San Fernando, Pampanga",(045) 961-2442
Diaserv Diagnostic Laboratory,"City of San Fernando, Pampanga",(045) 860 6598
Dr. Amando Garcia Med. Center,"Angeles City, Pampanga",(045) 888 8992
Our Lady of Mt. Carmel Medical Center,"City of San Fernando, Pampanga",to follow
Subic Dispensary Laboratory,"Subic, Zambales",(047) 252-4380
George Dewey Medical and Wellness Center,"SBFZ, Olongapo City",(047) 252-7312 loc. 1026
James L. Gordon Memorial Hospital,"Olongapo City, Zambales",(047) 2237571
General Emilio Aguinaldo Memorial Hospital,"Brgy. Luciano, Trece Martirez City, Cavite",(046) 419-2209
Dela Salle University Medical Center,"Congressional Avenue, Dasmarinas, Cavite",(046) 481-8000
Medical Center Imus,"Diversion Road, Palico II, Imus Cavite",(046) 472-3987 /472-3982 loc. 118
J. Ilano Clinical Laboratory,"GF Ilano Bldg., Nuevo Avenue, Imus Cavite",(046)4715051
Globalife,"Tanza, Cavite",(046) 489-1607
Sto. Domingo,"Rosario, Cavite",(046) 437-9463
San Pablo Colleges Medical Center,"Brgy. San RafaelMaharlika Hi-way, San Pablo Laguna",(049)5620726/5620728
Evangelista Medical Specialty Hospital,"Macarunaia Avenue, Pacita Complex, San Pedro, Laguna",(049) 808-4895
Calamba Medical Center,"National Highway, Crossing, Calamba City, Laguna",(049) 545-6080 loc. 1217
New Sinai MDI Hospital,"National Highway, Tagapo, Sta. Rosa, Laguna",(049)838-1281/534-3499 loc. 117
UPH-Dr. Jose Tamayo Medical Center,"National Highway, Brgy. Sto. Nino, Binan, Laguna",(049) 511-9799 loc. 2018
Pagsanjan Medical Clinic,"Pagsanjan, Laguna",(049)501-4882
Southern Luzon Hospital and Medical Center,"Brgy Don Jose Green Field Paseo Sta. Rosa, Laguna",(049)5440120
Batangas Regional Hospital,"Kumintang Ibaba, Batangas",(043)7230517
Daniel O. Mercado Medical Center,"No. 1 Press. Jose P. Laurel Highway, Tanauan Batangas",(043)7781810/7780960
Lipa Medix Medical Center,"Along National Hi-way, Balintawak Lipa Batangas",(043)7563008 loc. 1018 (043)7570088
Mary Mediatrix Medical Center,"J.P. Laurel Highway, Mataas na Lupa, Lipa Batangas",(043)7849999 loc. 1157 (043)7571988/7571976
Metro Lemery Medical Center Clinical Laboratory,"Palanas, Lemery Batangas",(043)4090480/4110480
N.L Villa Memorial Medical Center,"F. Manalo St., Lipa City Batangas",(043)7561217/7571281
St. Frances Cabrini Medical Center / American Bioclinical Laboratories International,"Maharlika Hi-way Poblacion St. Sto. Tomas, Batangas",(043)7784811/3182432
San Pablo Colleges Medical Center,"Brgy. San RafaelMaharlika Hi-way, San Pablo Laguna",(049)5620726/5620728
St. Particks Hospital Medical Center,"Lopez Jaena St., Batangas",(043)7238196/7232745
Golden Gate General Hospital,"17 Prieto St., Batangas City, Batangas",(043)723-3011 loc. 107
Madonna General Hospital,"153 Antorcha, Balayan, Batangas",(043)211-6557
"Nasugbu Doctors General Hospital, Inc.","P. Rinoza St., Nasugbu, Batangas",(043)9311035
CP Reyes Hospital ,A. Mabini Ave.,(043)7781119
The Immanuel Diagnostic and Drug Testing Laboratory,"Nasugbu, Batangas",(043) 931-0312
EBD Batangas City Health Laboratory,"City Health Office P. Burgos St., Batangas",(043)7232506
Shecem,"Nasugbu, Batangas",(043) 931-0306
Accucel,Antipolo City,696-675-152
Mount Carmel Diocesan General Hospital,"Allarey Extension, Quezon",716-1822
The Agape Health Care Center,"35/F Herrera Corner T. Claudio St., Dipolog",(065)2127055
Zamboanga City Health Office Clinical Laboratory,"Pettit Barracks, Zamboanga",(062)9913780/9915421
Zamboanga del Norte Cooperative Hospital,"Turno, Dipolog City",(065)2126990/2122444
Zamboanga del Sur Provincial Hospital Clinical Laboratory,"Tuburan District, Dau Pagadian City",(062)2143525
Bicol Regional Training and Teaching Hospital,"Legaspi, Albay",(052)4832648
Estevez Memorial Hospital Inc. Clinical Laboratory,"Don Juan S. Estevez St., Guevara Subdivision, Legaspi City",(052)4804021/4802135
Naga Health Care Diagnostic Center (Main),"12 J. Miranda Ave., Concepcion, Pequena, Naga",(054)4726690
"St. John Hospital, Inc. Naga City","Panganiban Drive, Camarines Sur",(054)4738502/4738919 (054)4724521
Bacolod Diagnostic Center,"21st St. Medical Lane, B.S. Aquino Drive",(034)4347598/4349002
Bacolod Our Lady of Mercy Specialty Hospital Laboratory,"Eroreco Mandalagan, Negros Occidental",(034)4341031/4322887
Dr. Pablo O. Torre Memorial Hospital Clinical Laboratory,"B.S Aquino Drive, Negros Occidental","(034)4337331/7050000 loc. 3115, 3116 (034)4345532"
Dr. Rafael S. Tumbokon Memorial Hospital,"Mabini St. Kalibo, Aklan",(036)2687062 loc. 125 (036)2684565
"Dr. V. Taleon Medical Clinic, X-Ray and Diagnostic Laboratory","G/F YMCA Building, Iznart St., Iloilo City",(033)3372568/3372071
Health Link (Iloilo) Inc.,"12 Mabini St., Iloilo City",(033)3364098
Jara Clinico-Pathological Laboratory,"Door 1 Pace Bldg. Lacson cor 1st St., Negros Occidental",(034)4346398/7090968
Jaranilla Medical Clinic,"67 Huervana St., La Paz, Iloilo City",(033)3207507
Lifeline Medical and Allied Services Inc. Clinical Laboratory,"Q. Abeto St. Mandurriao, Iloilo City",(033)3212285/5083753
Medical Associates Diagnostic Center Inc.,"Room 205, 2nd Floor, Legislator Bldg. Rosario Dona Juliana St., Bacolod",(034)4333493/4333494
Medicus Diagnostic Center-Health Partners Condo Clinics,"Brgy. San Rafael, Mandurriao, Iloilo",(033)5084058
St. Paul's Hospital Clinical Laboratory,"Gen. Luna St., Iloilo",(033)3372741/3380676
The Doctor's Hospital Inc. Laboratory,"B.S Aquino Drive, Brgy. Villamonte, Negros Occidental",(034)4332741 loc. 139 (034)4331256
Western Visayas Medical Center,"Q. Abeto St. Mandurriao, Iloilo City",(033)3213544/3211797
Villanueva Clinical Laboratory,"8 16th St. Lacson, Bacolod",(034)4335277/4333935
Amosup Seamen's Hospital-Cebu,"Camino Vicinal St. Umapad, Mandaue City",(032)2364773/3462598
Cebu City Health Department Laboratory,General Maxilom Ave. Ext.,(032)2344042
"Cebu Sagrada Corazon Health Services, Inc.","Room 310, City Savings Financial Plaza Osmena Blvd., cor. P. Burgos St., Cebu City",(032)2551180/2555639
Cebu (Velez) General Hospital Laboratory,"4/F Ramos St., Cebu City",(032)2531871 loc. 58 (032)2536839
Cyber Medical and Diagnostic Laboratory,"2/F La nora Bldg. N. Bacalso Ave., Cebu City",(032)2562957
"Dr. Ignacio M. Cortez General Hospital, Inc.","Rizal St. Ibabao, Mandaue City",(032)3451486/3460810
Gillamac Diagnostic and Medical Laboratories Inc.,82-B Don Gil Garcia St. Capitol Site Cebu City,(032)4166000
H.W. Miller Memorial Sanitarium and Hospital,"400 Tres De Abril St., Cebu City",(032)2616082 loc. 134 (032)2612111
Medisense Laboratory Center Inc.,Rm 301 Danague Bldg. Osmena Blvd.,(032)2535241
Sacred Heart Hospital-Laboratory,"Villa Aznar Urgello St., Cebu City",(032)4188412 loc. 535
St. Peter Paul Medical Clinic,"458B Colon St., Cebu City",(032)4121104/4120940
Vicente Gullas Memorial Hospital,Banilad Mandaue City,(032)3469292/3466137
Vicente Sotto Memorial Medical Center,"B. Rodriguez St., Cebu City",(032)2539891 loc. 102 (032)2380184
Visayas Community Medical Center,85 Osmena Blvd. Cebu City,(032)2533844/2533025
ZAFF Jay Medilines,"Annex 1, Century Plaza Commercial Complex, Juana Osmena St.",(032)2543186/2551686
Western Leyte Provincial Hospital,"Baybay, Leyte",335-2250/ 563-8241,William Sopa
Felipe Abrigo Memorial Hospital,"Guiuan, Eastern Samar",271-2180,Filomena Estudillo
Eastern Samar Provincial Hospital,"Borongan Eastern, Samar",560-9321,Falomi Corado
Hilongos District Hospital,"Hilongos, Leyte",567-9452,Marifil Arcilla Maco
Eastern Visayas Regional Medical Center,Tacloban City,321-3136,Gurita Teodofio
Divine Word Hospital,Tacloban City,321-2308,Emmelou Augero
Bethany Hospital Clinical Laboratory,Real Street Tacloban City,(053)3212427/3214636,Ms. Purita Dabnet
CUMC-Laboratories,"San Pedro, Gusa, CDO",(088) 2272315/2272432
CEDAR- Laboratories,"Pinikitan, Camaman-an, CDO",(088) 8573017
Dr. Uy Hospital Clinical Laboratory,"88 Roxas Ave., Iligan LDN",(063) 2254530/2212096
MARHPS-Laboratory,"Mindog, Maningcol, Mis. Occ. ",(088) 5210440/5210022
Mercy Comm.Hosp.Clinical-Lab.,"Camaque, Iligan City",(063) 2213587/2211156
Mindanao Sanitarium & Hospital,"Tibanga, Iligan City",(063) 2213029/ 3516444
Misamis University Medical Center,"Bagakay, Misamis Citiy",(088) 5212411/ 5212413
XU Comm.Health Care Center Clinical Lab.,CDO,(088) 8572143
COMC,"Tiano-Nacalaban st., CDO",(08822) 711874/711875
NMMC,"Capitol Compound, CDO",(088) 8565490/726362
RED CROSS,"Capitol Compound, CDO",(088)8568855/ 8566647
XU-MRH,"Pinikitan, CDO",(08822) 725210/725103
Community Health and Development Cooperative Hospital,"Anda Riverside, Magallanes Interior Davao City",(082)2210808 loc. 100/230
Davao Doctors Hospital,"118-E Quirino Avenue, Davao City",(082)2212101 loc. 400 (082)2264770
Davao Medical Center,"JP Laurel Bajada, Davao City",(082)2272731 loc. 4507 (082)2217029
Davao Regional Hospital,"Apokon, Tagum City",(084)4004023/4003050
Medical Mission Group Hospital and Health Services Coop. of Davao City,"3rd Ave. Leon Garcia St., Davao",(082)3057912 loc. 107 (082)2278610
Reproductive Health and Wellness Center City Health Office,"Magallanes St., Davao City",(082)2224187
Ricardo Limso Medical Inc.,"V. Ilustre St., Davao City",(082)2263688/2271629
Rivera Medical Center Inc.,"7302 Brgy. San Francisco, Panabo City",(084)6285234/8226409
St. Peter-Paul Medical Clinic Inc. Davao,"Rm 208 Lee Business Center, cor. Juan Luna and Dela Cruz St., Davao City",(082)2229812/2273102
UM Medical and Multitest Diagnostic Center Inc.,"Cayetano Bangoy St., Davao",(082)2228066/2217981
Soccsksargen County Hospital Clinic Laboratory,"Bula, Lagao Road Corner, Arradaza St., General Santos City",(083) 302-4567
St. Elizabeth Hospital Inc.,"National Highway Corner, Santigao Boulevard",(083) 552-3162
The Doctors’ Clinic and Hospital Inc.,"General Santos Drive, Zone IV, City of Koronadal, South Cotabato",(083) 228 6337
Baguio General Hospital and Medical Center,"BGHMC Compound, Kennon Road, Baguio City",169 ; 442-5197
Notre Dame de Chartres Hospital,"Gen. Luna Road., Baguio City","(074) 619-8530 (31,32,33,34); (074)304-5960"
Pines City Doctors' Hospital,"Magsaysay Ave., Baguio City",(074)445-3020 ; 445-2091; 446-9125; 442-2615; 446-9126
Saint Louis University Hospital of the Sacred Heart,"Assumption Rd., Extension, Baguio City",(074) 442 5700-01/442-3621/443-2000
"Assumption Medical Diagnostic Center, Inc. (Baguio City Branch)","10 Assumption Road, Baguio City",(074) 443-9580
Baguio Doctors' Medical Laboratory and Clinic,"Rooms 213-215, GP Arcade Bldg., Upper Mabini, Baguio City",(074) 443-9560
Benguet Laboratories (SM),"Unit 044 and 045 Lower Ground Level SM City, Luneta Hill, Baguio City",(074)442-2027; 442-2016;
Benguet Laboratories (Centermall),"L4 M22 Baguio Centermall Corner Dagohoy St., Magsaysay Ave., Baguio City",(074) 442-4528
"Family Polyclinic and Laboratory, Inc.","Rms. 12-16 Laperal Bldg., Session Road, Baguio City",(074)442-5299/(074)444-8835
Health Services Office - Public Health Laboratory,"T. Alonzo St., Baguio City",300-6540; 442-6018
Metro Baguio Laboratories (Main),"146 Kisad Road, Baguio City",(074) 443-8582
Metro Baguio Laboratories (Branch),"48 Diego Silang St., Baguio City",(074) 442-6211
PNRC - Baguio City,"Harrison Rd., Baguio City",(074) 442-4036
Session Diagnostic Center,"Session Rd., Baguio City",(074) 446-0672
Abra Provincial Hospital,"Capitulacion St., Calaba, Bangued, Abra",(074) 752-8255; fax: 752-7510
Far North Luzon General Hospital and Training Center,"Poblacion, Luna, Apayao",0917-8616-050
Benguet General Hospital,"Km.5, La Trinidad, Benguet",(074)422-5506; (074) 422-4722 loc. 1401/1402.
Lutheran Medical Mission and Rehab Foundation. Inc.,"Abatan, Buguias, Benguet",0910-2537-501
Sto. Nino Hospital of Philex Mining Corp.,"Philex Mines, Pacdal, Tuba, Benguet",0920-6522-186
"Assumption Medical Diagnostic Center (La Trinidad, Beng.)","Km.5, La Trinidad, Benguet",(074) 309-3256
Clinica La Trinidad,"D and L Bldg 2. Pico Rd., Km.5, La Trinidad, Benguet",0928-6280-481/0920-843-384
"Great Faith Medical Pharmacy and Diagnostic Center, Inc.","2/F, Rm. 204-205, VC Arcadian Bldg., Km.5 Pico, La Trinidad, Benguet",(074) 422-4842
"PNRC - La Trinidad, Benguet","BeGH Compound, Km.5, La Trinidad, Benguet",(074) 422-2796
Kalinga Provincial Hospital,"Bulanao, Tabuk, Kalinga",0916-4542-753
Tabuk Diagnostics and Clinical Laboratory,"Purok 5, Bulanao, Tabuk, Kalinga",0917-5418-668
Ifugao General Hospital,"Natuwolan Cudog, Lagawe, Ifugao",0916-5255-432
Bontoc General Hospital,"Bontoc, Mountain Province",0908-6244-053
Luis Hora Memorial Regional Hospital,"Abatan, Bauko, Mountain Province",0920-4972-746
St. Theodore's Hosptial,"2619 Sagada, Mt. Province",0928-3327-817
Andres Soriano Memorial Hospital,"P1 Cumawas, Surigao del Sur",(086)8531199/8533124
Butuan Doctor's Hospital Laboratory,"J.C. Aquino Ave., Butuan",(085)3427000 loc. 153 (085)8153184
Caraga Regional Hospital Clinical Laboratory,"Rizal St., Surigao",(086)8263103
Accucell Diagnostic Center,"Rm 219-221, Femar Bldg., M.L Quezon St., San Roque",(02)6305210/6966751
Agoncillo Medical Clinic,"G/F Bldg 1721, F. Agoncillo St., Cor. Pedro Gil St., Malate Manila",(02)3025288
Alabang Medical Center,"Alabang Zapote Rd, Alabang, Muntinlupa City",(02)7750275
Alif Medical and Diagnostic Clinic,3rd Floor Agoncillo Bldg Cor. Pedro Gil Taft Ave. Manila,(02)4041538/5265780
American Out Patient Clinic,"2/F FEMII Bldg., A. Soriano Ave., Intramuros Manila",(02)5271611
American Bio-Clinical Laboratories International,"LG 5 Richville Corporate Tower, Madrigal Business Park Ayala Alabang",(02)8506288-89  (02)8506287
Angelus Medical Clinic,"104 V. A Rufino St., Legaspi Village",(02)8151938/8171997
Arguelles Medical Clinic,"1271 Zobel Roxas, Malate, Manila",(02)5215353
Asia Pacific Medical and Diagnostic Services Inc.,"3/F Alscophil Bldg. 2053 Edison Cor. Faraday St., San Isidro",(02)8872145/8871865
Asian Hospital and Medical Center,"2205 Civic Drive Filinvest Corporate City, Alabang Muntinlupa City",(02)7719000 loc 8351
Asiatic Medical Laboratories Inc.,"Rm. 205 Se Jo Tong Bldg., 808 Ongpin St., Sta Cruz Manila",(02)7333087/7333065
Avs Medical Clinic,"2/F, 1214 Arquiza St., Cor. M.H Del Pilar, Ermita,Manila",(02)5229552
Best Diagnostic Corporation,"94 Masikap St., Diliman Quezon City",(02)9201023/9280861
Bioscan Clinical Laboratory,"Unit 9-J Teodoro St., 4th Ave. Grace Park, Caloocan City",(02)3616208
Calpe Medical Services and Supplies,"1421 A. Mabini St., Ermita, Manila",(02)9201023
Capitol Medical Center,"Scout Magbanua Cor. Panay Ave.,Quezon City",(02)3712158
CBZ Medical Clinic,"1507 NFWCBldg, San Marcelino, Ermita, Manila",(02) 5269133/5214736/5269133
CEU Clinical Laboratory,No. 9 Mendiola St.,(02)7356861-69 loc. 237  (02)7356876
Centerport Medical Services Inc.,"4th Flr Victoria Bldg ., 429 U.N Ave. Cor. L.M., Ermita, Manila",(02)5260221
Centralle Medical Diagnostic and Polyclinic,"G/F 1st AMIJI Mansion, 6th Ave. Cor. MH del Pilar St Caloocan City",(02)3610106
Chinese General Hospital and Medical Center,"286 Blumentritt St., Sta. Cruz",(02)7114141 loc 369 to 370
Christian Medical Clinic Inc.,"22-B Madison st, New Manila, Quezon City",(02)4165358
Clemen's Medical Clinic,"3rd Floor Goodwill Bldg. 1662 Leon Guinto, Malate Manila",(02)5227920 to 21 (02)5222336
Clinical Occupational Medicine and Treatment Center (CLINICOMED),"470-San Andres Cor. M.H Del Pilar St., Malate, Manila",(02)5215499/5260840
Clinilab Medical Services Inc.,"2/F Orchid Tower Oriental Gardens, Don Chino Roces Ave.",(02)7298966
Clinimed Biodianostic Center,2440-C Palm Court St. Pasay City,(02)8330009
Co Medical and Diagnostic Clinic,"Suite 101 Maxim Bldg # 805-809 G. Masankay st, Manila,Binondo, Manila ",(02)2448669
D' Micro asia Medical Laboratory,"913 A.T Reyes St., Brgy Poblacion, Mandaluyong City",(02)5351438
Delos Santos-STI Medical Center,"201 E. Rodriguez St. Ave.,Quezon City",(02)7228788
Dr. Jose Fabella Memorial Hospital,"Lope De Vega St., Sta. Cruz Manila",(02)7345561 loc. 104/115 (02)7347146
East Pacific Medocare Diagnostic Center,"No. 30 E.U State Tower, Quezon Ave.",(02)4126195
Eastern Doctors Medical Services Inc.,"Suite G-1 Bel-Air, Apts. 1020 Roxas Blvd., Ermita Manila",(02) 5215499/5260840
Echavez Medical Services,"Arle Square Unit E, 187 Edsa,Mandaluyong City",(02) 7219776
Ely Rose Medical and Diagnostic Center,"2008 AandB Taft Ave., Manila",(02) 5236854
Excelsis Medical and Diagnostic Clinic,"101 2nd Flr. Palisade Bldg. Ma. Orosa St., Ermita Manila",(02)3531110
Fatima University Medical Center,120 MacArthur Highway Marulas Caloocan City,(02)2916538
Fe Del Mundo Medical Center,"11 Banawe St., Brgy Dona Josefa,Quezon Ave., Quezon City ",(02)8459555 loc. 167
First Medical Team Health Care Specialist Group,"4th Flr. San Luis Terraces Bldg., T.M Kalaw, Ermita Manila",(02)5229782/5266107
First Multi Health Care Services,3rd Flr. Lopez and Cabana Bldg. 2106 Taft Cor. Quirino Manila,(02)4043798 to 99
"FEU-NRMF Medical Center, Dept. Of Clinical Laboratory","Regalado Cor. Dahlia St., West Fairview",(02)4275755
F.Y Manalo Medical Foundation,"Commonwealth Ave., Cor. T. Sora, Diliman, Quezon City",(02)9327387
"Galenus Clinic, Inc.","3/F Ferguson Park Tower M.H. Del Pilar or. A-flores St., Ermita Manila",(02)5284185/96 (02)5369716
Good Health Diagnostic Center,"Room 302 Young Trade Bldg Gen Malvar Ave., Quezon City",(02)9110282
Good Shepherd Laboratory and Health Diagnostic Services Inc.,"19 G and F Bldg Unit A G/F Bayan-Bayanan Ave., Concepcion, Marikina City",(02)9427942
Halcyon Marine HealthCare Systems,"Unit AandB 10/F Trafalgar Plaza Bldg., 105 H.V dela Costa St., Salcedo Village Makati City",(02)8640213 to 14 loc. 115/(02)8640262
HealthLab and Medical Services Inc. ,"Suite 802 and 1601 Medical Plaza Makati Bldg, Makati City",(02)8671140/8671141
Health Point Medical Clinic and Diagnostic,"577 Padre Faura St., Ermita, Manila",(02)5274286/90
Health Stat Diagnostic and Health Center,"83 Unit 15 and 16 Marikina East Center Bldg, Gil Fernando Ave., San Roque, Marikina City",(02)4770551
Healthwise Diagnostic Lab,"1417 B Richtown Tower Mayhaligue St., Sta Cruz, Manila",(02)2544861
Heartland Medical and Diagnostic Center,"1717 Angel Linao St., Paco Manila",(02)3031313
Hi-Presicion Diagnostics,"440-442 W. Long Bldg Del Monte Ave. Cor. Biak na Bato, Quezno City",(02)4137950 loc 223
Holy Angel Medical Clinic Inc.,"603 AP Bldg., Pedro Gil St.,Ermita, Manila",(02)5216112/14
Hospital of the Infant Jesus,"1556 LaongLaan Road., Sampaloc, Manila",(02)7312771 loc. 151
Intercon Diagnostic Labotory Inc. (main),"453 Juan Luna St, Binondo, Manila",(02)2428061
International Health Aide Diagnostic Services Inc.,2F Joshua Center Bldg. 1428 Taft Ave. Ermita Manila,(02)5222772 loc. 105 (02)5281086
International Diagnostic Center Inc.,"1901 IDC Bldg., 429 United Nation Ave., Ermita, Manila",(02)5366682
JED Diagnostic Center,"3rd Floor Gardino Tower, 350 Arroceros St., Ermita Manila",(02)5225086/4005676 (02)5225086
Jose L. Guttierrez Clinic,"2031 M.H. Del Pillar ST.,Malate,Manila",(02)5232570/5248995
Jose R. Reyes Memorial Medical Center,"Rizal Ave. Sta. Cruz, Manila",(02)7400246
K Line Laboratory,"2/F K line Bldg., Cor.al Way Drive, Central Business Park, Macapagal Blvd. Pasay Manila",(02)5562956 loc. 405
Las Pinas City Medical Center and Laboratory,"B14 Marcos Alvarez Ave.,Talon V,Las Pinas City ",(02)8005695 loc. 105
Life Value Diagnostic and Medical Center,"155A Tadang Sora Ave.,Quezon City",(02)4566967
Lopez Medical and X-ray Clinic ,"Casa Bella Bldg., 2nd Flr 1046 Quezon Ave., Quezon City",(02)3719586/3725026
Lung Center of the Philippines,"Quezon Ave., Quezon City",(02)9246101 loc. 285 (02)9288125
Maritime Medical and laboratory Clinic Inc.,"2/F Paragon Tower Hotel 531 A. Flores St., Ermita Manila",(02)5263812/5263816
MCU-FDTMF Hospital Clinical Laboratory,"Samson Road, Edsa",(02)3633084/367231 loc. 1197 (02)3654868
Medical Center Manila,"1122 Gen. Luna St.,Ermita, Manila",(02) 5238131 loc. 2107
Medical Center Paranaque,"Dr A. Santos Ave., Sucat Road, Paranaque",(02) 8261013/8256911-14 loc 116
"Medical Dental Tests Center, Inc. (MEDTEST)","4/F Dallcon II Bldg., 164 Aurora Blvd.",(02)7442637
Medical Towers Laboratory and Diagnostic Center,"Suite 510-512 Medical Towers Bldg, VA Rufino, Makati City",(02)8183175
Med Watch Medical Clinic and Diagnostic center,"1616 Tetra Global Bldg., Pedro Gil Cor. Vasquez, Manila",(02)4040942
Medway Healthcare Inc.,"G/F 1636 F. Agoncillo St. Malate, Manila",(02)4040530
Metropolitan Medical Center,"1357 G. Masangkay St., Sta. Cruz Manila",(02)2541111 loc. 2101
MPI-Medical Center Muntinlupa,"38 National Road, Brgy Putatan,Muntinlupa City",(02)8620162 loc. 2101
MVR Laboratory Diagnostic Center,"Rm 501 Trinity Bldg., 636 T.M Kalaw St., Ermita Manila",(02)4043755/5240515
"Newton Medical and Diagnostic Services, Inc.","1452-A Newton St., Brgy. Isidro",(02)8876713/8892860 (02)8130536
"Notre Dame Medico Dental Clinics, Inc.","Elena II Bldg., 1036 J. Nakpil St., Malate, Manila",(02)5232311 loc. 104
"OCW Medical Clinic, Inc.","3/F Regent Bldg., 1415 Gen. Luna St., Ermita Manila",(02)5367513/5239176
Ospital ng Makati,"Sampaguita St., Cor. Dahlia St., Fort Bonifacio, Makati City",(02 5246061 loc. 354/358
Ospital ng Muntinlupa,"Civic Drive, Filinvest Alabang",(02)7710457 loc. 135 (02)7710428
Our Lady of Lourdes Hospital Clinical Laboratory,"46 P. Sanchez St., Sta Mesa, Manila",(02)7163901 loc. 229/287
Our Lady of Peace Hospital,"Coastal Road Brgy., San Dionisio",(02)8295775 loc. 119 (02)8257714
Paranaque Doctors Hospital,"175 Dona Soledad Ave.,Better Living Subd, Paranaque City",(02) 7760644 loc. 8101
Philippine Children's Medical Center,"Cor. Agham Road, Quezon Ave. Quezon City","(02)9246601 to 25 loc. 323,246 (02)9219781"
Philppine General Hospital-Department of Laboratories,"Taft Ave., Malate, Manila",(02)5548400 loc. 3204
Philippine Heart Center Blood Bank,"East Ave., Diliman Quezon City",(02)9252401 loc. 5130 (02)9291638
Prosperity Medical Clinic and Laboratory Inc.,"Unit 4 858 Remedios St., Malate Manila",(02)5212252
Physician Diagnostic Services Center,"4/F Phisicians Tower 533 U.N Ave.,Ermita, Manila",(02)5214967/5214975
PandD Peralta Medical Clinic Laboratory,"3rd Filipino Bldg. 1355 Dela Rosa St Cor. Legazpi Village,.Makati City",(02)8172632/8100820
PTC Health Metrics Inc.,"11/F Pryce Center Bldg. 1179 Chino Roces Ave. Cor. Bagtikan St., San Antonio Village, Makati City",(02)8953292 loc. 104 (02)8973597
Quirino Memorial Medical Center,"Katipunan Road, Project 4 Quezon City",(02)4212250/55 loc. 134-136 (02)9134739
Rizal Medical Center,Shaw Blvd.,(02)6719740-43 loc. 103  (02)6719616
RBG Medical and Dental Clinic,"1353 A. Mabini St., Ermita, Manila",(02)5211039
"RGO Laboratory and Industrial Diagnostic Center, Inc.","1980 M. Reyes St., Bangkal",(02)8431853/8891311 (02)8893003
"RNL Medical and Diagnostic Center, Inc.","2/F Olympic Bldg #65 Sen. Gil Puyat Ave., Makati City",(02)8444690/8444697
"Ruben C. Bartolome, MD., Clinic Inc.","878 J. Nakpil St., Malate Manila",(02)5254833/5251156
"Sacred Heart Diagnostic Medical Clinic, Inc.","Right Wing 2F Maga Center, Makati City",(02)8530235
Safeway Diagnostic and Medical Clinic,"Centillion Centre. 2972 Ramon Magsaysay, Manila",(02)7135219-20
Sanda Diagnostic Center,"2/F Sanda Bldg., A Lacson Cor. Laonglaan St., Sampaloc Manila",(02)4009287/7424080
San Juan Medical Center,"N. Domingo , San Juan City",(02) 7243461/7243266 loc. 104/103
Sea Landers Diagnostic and Treatment Center,"Unit 15 Rothman Hotel, 1633 M. Adriaco St., Manila",(02)3092629
Seamed Medical Clinic Inc.,"2/F 867 G. Tolentino St.,Sampaloc, Manila",(02)7352579/7424080
Sim Clinical Laboratory Inc. Manila,"840 Benavidez St., Binondo, Manila",(02)2431357/2436920
"SM. Lazo Medical Clinic, Inc.","1766 Taft Ave., Cor. J. Nakpil St., Ermita, Manila",(02)5241891
South Super Highway Medical Center,Km 17 West Cavite Rd. Brg. Marcelo,(02)8235250 loc. 809  (02)8218452
Starmed Diagnostic Services Inc.,"Rm 101 Acre Bldg 137 Malakas St, Diliman, Quezon City",(02) 4330103
St. Camilus Polyclinic Clinical Laboratory ,116 E. Amang Rodriguez Ave. Pasig City,(02) 6453741/6453742
St. Cecilia Polyclinic,"3/F Metrobank Bldg., 1149 A. Mabini St., Ermita Manila",(02)5262643/5262621
St. Jude Hospital and Medical Center,"Dimasalang Cor. Don Quijote St., Sampaloc Manila",(02)7312761 loc. 264  (02)7404149
St Luke's Extension Clinic,"1177 J. Bacobo St, Ermita, Manila",(02)5218647 ext. 402
"St. Magdalene Diagnostic Clinic, Inc.","2/F JCR Bldg., 298 P. Tuazon St., Cor. 20th Ave., Cubao Quezon City",(02)4401546/9139856 (02)4388515
St. Patricks Health Care System Inc.,566 Shaw Blvd.,(02)5339291
St Stephen Medical Clinic Inc.,"1718 Dian St.,Cor. Emilia Brgy. Palanan, Makati City",(02)8329405
Sto Domingo Diagnostic and Medical Center Corp.,"No. 111 LM Bldg. 3/F Rm 303 Quezon Ave., Sto. Domingo",(02)3818435/7408362
Supercare Medical Services Inc.,"Rm 315 Velco Center RS Oca Cor. AC Delgado St., Port Area",(02)3385768/5219699 loc. 214 (02)4041698
"The Family Clinic Hospital Clinic, Inc.","1474 Maria Clara St. Sampaloc,Manila",(02) 7312901 loc. 228
United Doctors Medical Center,"290 Espana St., Cor. 6 N. Ramirez St., Sampaloc Manila",(02)7123640 loc. 113 (02)7123270
University of Perpetual Help Rizal Medical Center,Alabang Zapote Road,(02)8748515 loc. 221 (02)8737210
University of Sto. Tomas Hospital,Espana Sampaloc Manila,(02)7313001 loc. 2611 (02)7417882/7311985
Victor R. Potenciano Medical Center,163 Epifanio delos santos Ave.,(02)5314911 loc. 236 (02)5337957
Vizcarra Diagnostic Center ,"Segundina Bldg. 464 U.N Ave. St, Ermita,Manila",(02)5245641 loc. 217
"Worldwide Diagnostic Center, Philippines","Mezzanine floor Delta Bldg., West Ave., Cor. Quezon Ave.",(02)3720589/3712087